{
  "type": "service_account",
  "project_id": "post-management-15fbf",
  "private_key_id": "3f3fef49fe10c1153b1c39f555b3af71ddf69aab",
  "private_key": "-----BEGIN PRIVATE KEY-----\nMIIEvAIBADANBgkqhkiG9w0BAQEFAASCBKYwggSiAgEAAoIBAQC9OKCrTaocE56h\nPP+jK0DYKTzTk6NBrPcvcldWolSeNybt6b6WAN15Ov6fHehB4F9tzrvVLXpky6Jw\n2T4MtEAmFjgDWwmZbFAwr3I8dC5/m/yyVbCOPcDt0fvfOvh39weKdJrt3Gm1mx1A\n6DrHIDw/WVP3RNejSH0Kz2sk1afCZdSC9tcHcxP/Sz2FMC+AF2F2PhVYy3H31ZWA\naLlhDYnOgbJMujmAi0r0kRAO4cMg7MIlrGCFQZE369EGMA5MCbY2dT0q7UK4/yIX\nberXqkWzg3Nax2UoJ+tOpDaswwFLI/jphKQAlOc/N3+we2bCp6rAu3HmOjIBgUMJ\nmgaAEbVxAgMBAAECggEAEfUi9WLtYRUBFdkDw0zebm1KdSNip9/WBSIXNRT6jhna\nl1Nat6JtIl1Vjwz/7umP8OxA4fg7EIANYmORmpPMLzkmV3YvNOjlOtuZrjBR/eEU\nRCny86rbaY6HNm4iqMLwS6Tpk6eafiZSikeH1YBDC3mLKRE23EuLt2gMKW6f6UhG\nHICJHhmCp9CioPSQ8OK34UCrsl6/vGafDqVj3wMODim3WBJ7gxi+ILJ2n0e91k5R\niAmsS0jU3Upia4hV7Rjh0dwA4Xkd3hmTVIYWrhNHVq81A7nnEthKK2gVxtlSUCzo\nd7JJYMjCp/HW3aIRooquahO9p9+W0KA03u7ROuXqiQKBgQDqphGFOxHWMdNXu4q8\nLPEpvcYpGVA4hQfqUCUTJ1S04vQy6ScofngqZTeoL634fa5A9fQ9sA/hEFM3VTjO\nl4OzzIzZOKsWAcUkoljl5oOoFn1ntrdkQ3yEHaTdWs+hGY1dCNnNoPxU01BGSAew\nrdewoEa7JhkC+KrLbyJrV2jqKQKBgQDOcF27wmILOA5EkLLQ+zbwM3kfq62JxsFS\nihUwcJTB3+igKoybIf5/LIZ/tX4CMQTGKo+LM3IGgN9Mqzf25AO9x5m2ofXkHv+b\ngK6qnq2ZMgFxWu9QspAVICmt+o8JThPP1SxYKd27y1kwUrTtuFAS9MtOFLqpaO9u\nT5gxZ5jqCQKBgEb4f6gaW6S7YT7R3H5Z4X9MhNj9bQQLSH+YSf5nEPm9Azs6xbs7\ntUCtaI4YDbhw2vmO6paV39ekxmagAhSKQy1omtlAiI6ZbnVMHTM762o1kyyBWSqc\nNtcG2EyTIOWLAvS2rpnBLVDCsS7wrlLD4c7sSzhjp4D8kTwCmxh4UaUxAoGAKbyq\nFsXsEJyatd4TaREBQHsHqBGLmmlmuItWUV7RlIjyfT9dAhhTXd7gqn1FJqhGcNI2\nB0y1Zv8zJksPm4jqALqUJ0qDbkWeJBBWQASo0Go9xG9AJy6S1tKT2qrntFfmxYQx\n3PlJ7SfltlFiZxV2iv6XBAhI3OtsTP8mpAZv8hECgYAjmz54vBH+SzrqJZUj9Qdb\nrK0UaXyljFOleGTAFfEkTfSde9FhbCR1pEZdzVno54WpD9A6vlvPMQnFRZqp+aVM\n9jLaAKijtqFgFpTed0S42XJ6VFUwnajdX6OkfQnJE4Aowsq8bYdRO7cJIJUckK0x\niKd/PRU5G/FDxjyM6D3oJg==\n-----END PRIVATE KEY-----\n",
  "client_email": "firebase-adminsdk-sicnd@post-management-15fbf.iam.gserviceaccount.com",
  "client_id": "117098932675767074045",
  "auth_uri": "https://accounts.google.com/o/oauth2/auth",
  "token_uri": "https://oauth2.googleapis.com/token",
  "auth_provider_x509_cert_url": "https://www.googleapis.com/oauth2/v1/certs",
  "client_x509_cert_url": "https://www.googleapis.com/robot/v1/metadata/x509/firebase-adminsdk-sicnd%40post-management-15fbf.iam.gserviceaccount.com"
}
